java.util.HashSet.toArray,0.0505
java.lang.invoke.MethodType$ConcurrentWeakInternSet.get,0.0121
org.bson.internal.CodecCache$CodecCacheKey.<init>,0.0434
java.lang.StringConcatHelper.newArray,0.0892
org.springframework.boot.autoconfigure.AutoConfigurationSorter$AutoConfigurationClass.getBefore,0.0487
java.lang.PublicMethods.merge,0.0438
org.springframework.boot.SpringApplication.quoteProfiles,0.0418
java.lang.AbstractStringBuilder.append,0.0927
org.apache.catalina.core.StandardServer.reconfigureUtilityExecutor,0.0434
org.springframework.core.annotation.TypeMappedAnnotations.from,0.1010
org.springframework.context.annotation.ComponentScanAnnotationParser.parse,0.0487
org.bson.internal.ProvidersCodecRegistry.lambda$get$0,0.0012
java.net.JarURLConnection.parseSpecs,0.1261
org.springframework.boot.loader.jar.JarFileEntries.getEntryData,0.0900
org.springframework.asm.MethodWriter.<init>,0.0438
java.lang.reflect.Method.copy,0.1373
java.util.concurrent.ConcurrentHashMap.putVal,0.2240
org.springframework.boot.web.servlet.ServletContextInitializerBeans$FilterRegistrationBeanAdapter.createRegistrationBean,0.0434
org.springframework.boot.util.LambdaSafe$Callbacks$$Lambda$544/0x00007fde78311140.<init>,0.0438
java.nio.Buffer.<init>,0.0487
org.springframework.core.annotation.AnnotationsScanner.processClassHierarchy,0.1010
java.util.AbstractMap$SimpleImmutableEntry.<init>,0.0421
java.lang.invoke.Invokers$Holder.linkToTargetMethod,0.1442
org.springframework.boot.context.properties.bind.AbstractBindHandler.<init>,0.0438
org.springframework.core.annotation.AttributeMethods.isValid,0.0443
org.springframework.beans.factory.support.AbstractBeanFactory.evaluateBeanDefinitionString,0.0434
java.lang.String.contains,0.0839
java.util.Formatter$Flags.contains,0.0434
java.util.zip.ZipFile$Source.getEntryPos,0.0450
org.springframework.core.annotation.AnnotationsScanner.hasPlainJavaAnnotationsOnly,0.0450
java.lang.invoke.MethodHandle.setVarargs,0.0418
java.security.Provider.putPropertyStrings,0.0434
java.util.Spliterators$ArraySpliterator.estimateSize,0.0434
org.springframework.boot.loader.jar.JarFileEntries.containsEntry,0.0555
java.lang.Boolean.valueOf,0.0421
jdk.proxy2.$Proxy26.<clinit>,0.0487
java.time.LocalDate.isLeapYear,0.0555
java.security.SecureClassLoader$1.<init>,0.0421
org.springframework.util.ConcurrentReferenceHashMap.put,0.0438
sun.nio.ch.Net.accept,-0.0000
java.lang.invoke.BoundMethodHandle.bindArgumentL,0.0450
org.springframework.beans.factory.support.ConstructorResolver.instantiateUsingFactoryMethod,0.0450
java.lang.invoke.MethodHandle.asTypeUncached,0.0438
java.time.zone.ZoneRules.getOffset,0.0487
java.lang.reflect.Executable.getAnnotation,0.0505
java.lang.StringLatin1.lastIndexOf,0.6680
java.nio.ByteBuffer.limit,0.0450
java.lang.invoke.MethodHandles.argumentsWithCombinerChecks,0.0438
org.springframework.util.ConcurrentReferenceHashMap$Segment.restructure,0.0955
org.springframework.util.ConcurrentReferenceHashMap$Segment.getReference,0.1910
java.lang.ref.Reference.processPendingReferences,0.0000
org.springframework.util.ReflectionUtils.findMethod,0.0434
java.lang.Throwable.fillInStackTrace,1.1639
java.lang.String.newStringUTF8NoRepl,0.0421
jdk.internal.reflect.ReflectionFactory.newMethodAccessor,0.0487
jdk.internal.misc.Unsafe.putLong,0.0421
jdk.internal.misc.Unsafe.getByte,0.0974
com.mongodb.internal.connection.DefaultConnectionPool.<init>,0.0434
org.springframework.boot.context.properties.bind.Binder.getAggregateBinder,0.0418
java.lang.ClassLoader.defineClass0,0.8161
java.lang.ClassLoader.defineClass1,4.5462
jdk.internal.loader.URLClassPath.getLoader,0.0421
org.springframework.data.repository.config.RepositoryBeanDefinitionBuilder.<init>,0.0443
org.springframework.boot.loader.jar.StringSequence.<init>,0.0421
java.util.ArrayDeque.<init>,0.0418
jdk.internal.loader.Resource.getBytes,0.1732
java.util.stream.ReferencePipeline.peek,0.0443
java.util.WeakHashMap.getEntry,0.0487
java.nio.charset.CharsetDecoder.decode,0.0421
org.springframework.util.ReflectionUtils.getDeclaredMethods,0.0434
java.lang.Class.isHidden,0.0375
org.springframework.context.support.GenericApplicationContext.<init>,0.0418
java.lang.ClassLoader.findLoadedClass0,0.2170
com.fasterxml.jackson.databind.module.SimpleModule.addDeserializer,-0.0063
java.lang.Class.copyConstructors,-0.0063
java.lang.Class.getDeclaredMethods0,0.5043
org.springframework.core.annotation.AnnotationTypeMappings.size,0.0443
java.io.RandomAccessFile.seek0,0.1277
java.lang.Integer.parseInt,0.0434
org.springframework.security.config.annotation.web.configuration.WebSecurityConfiguration.setFilterChainProxySecurityConfigurer,0.0505
java.lang.StringLatin1.toUpperCase,0.0877
jdk.internal.loader.URLClassPath.getResource,0.2942
java.util.HashMap.putVal,0.1293
java.lang.PublicMethods$MethodList.<init>,0.0443
java.lang.NamedPackage.<init>,0.0443
org.springframework.core.ResolvableType.resolveType,0.0418
org.springframework.http.server.DefaultPathContainer.createFromUrlPath,0.0505
com.mongodb.internal.connection.SocketStream.initializeSocket,0.0012
sun.util.resources.TimeZoneNames.getContents,0.0434
org.springframework.boot.env.RandomValuePropertySource.getProperty,0.0505
jdk.internal.reflect.NativeConstructorAccessorImpl.newInstance0,0.1366
java.lang.Integer.stringSize,0.0421
java.text.RBCollationTables.<init>,0.0434
java.lang.Thread.currentThread,0.0443
java.lang.ThreadLocal$ThreadLocalMap.getEntry,0.0487
org.springframework.core.annotation.MergedAnnotationsCollection$AnnotationsSpliterator.characteristics,0.0487
java.nio.DirectByteBuffer.get,0.0861
org.apache.tomcat.util.scan.StandardJarScanFilter.populateSetFromAttribute,0.0438
java.util.Arrays.copyOf,0.0505
org.apache.catalina.webresources.Cache.getResources,0.0434
org.springframework.web.method.HandlerMethod.initMethodParameters,0.0505
jdk.internal.perf.PerfCounter.increment,0.0421
jdk.internal.org.objectweb.asm.SymbolTable.hash,0.0418
sun.reflect.generics.tree.MethodTypeSignature.make,0.0418
java.lang.String.equals,0.0487
sun.reflect.annotation.AnnotationParser.toArray,0.1377
java.lang.StringLatin1.hashCode,1.1444
java.lang.Thread.dumpThreads,1.2912
org.springframework.data.mongodb.core.convert.MappingMongoConverter.<init>,0.0450
java.lang.StringConcatHelper.prepend,0.0421
java.lang.ref.Reference.getAndClearReferencePendingList,0.0000
org.springframework.core.convert.converter.Converter.andThen,0.0438
sun.net.spi.DefaultProxySelector.select,0.0019
jdk.internal.misc.Unsafe.copyMemory0,0.0438
jdk.internal.org.objectweb.asm.MethodWriter.<init>,0.0443
jdk.internal.reflect.Reflection.getClassAccessFlags,0.0421
org.springframework.boot.loader.LaunchedURLClassLoader.definePackage,0.0443
jdk.internal.loader.BuiltinClassLoader$2.<init>,0.0418
java.util.Objects.equals,0.0443
org.springframework.boot.StartupInfoLogger.appendContext,0.0418
org.springframework.boot.context.properties.bind.Binder.<init>,0.0418
java.lang.Class.forName0,0.1807
com.fasterxml.jackson.databind.introspect.SimpleMixInResolver.addLocalDefinition,-0.0063
sun.reflect.annotation.AnnotationParser.parseConst,0.0487
java.util.stream.Stream.concat,0.0450
java.util.LinkedHashMap$LinkedValues.toArray,0.0438
org.springframework.util.ReflectionUtils.isCglibRenamedMethod,0.0443
java.net.URL.<init>,0.1760
org.slf4j.helpers.NOP_FallbackServiceProvider.<clinit>,0.0421
java.util.ArrayDeque.removeFirst,0.0893
sun.nio.ch.Net.poll,0.0619
sun.text.resources.cldr.FormatData_en.getContents,0.0121
java.util.IdentityHashMap.entrySet,0.0421
java.lang.Class.getReflectionFactory,0.0418
java.net.URL.toExternalForm,0.3995
java.net.URLClassLoader.defineClass,0.0418
org.springframework.core.annotation.AnnotationTypeMappings.addAllMappings,0.0487
jdk.internal.loader.BuiltinClassLoader.loadClass,0.0421
org.springframework.beans.factory.BeanFactoryUtils.beanNamesForTypeIncludingAncestors,0.0450
org.springframework.aop.support.AopUtils.canApply,0.0505
java.util.concurrent.ConcurrentHashMap$ValueIterator.next,0.0421
java.lang.ClassLoader.getDefinedPackage,0.0443
java.util.ImmutableCollections$MapN.get,0.0421
java.util.function.BiPredicate.or,0.0418
org.springframework.boot.context.config.StandardConfigDataReference.<init>,0.0418
org.springframework.core.annotation.TypeMappedAnnotation.createIfPossible,0.0418
org.springframework.data.repository.util.QueryExecutionConverters$NullableWrapperToFutureConverter.<init>,0.0450
org.springframework.util.ReflectionUtils.lambda$getUniqueDeclaredMethods$2,0.0443
java.util.HashMap.hash,0.1285
java.lang.Class.reflectionData,0.0876
java.util.Formatter.format,0.0008
java.time.Instant.ofEpochSecond,0.0421
org.springframework.aop.support.annotation.AnnotationMethodMatcher.matchesMethod,0.0450
java.lang.invoke.LambdaFormEditor$TransformKey.<init>,0.0434
java.lang.String.lastIndexOf,0.0835
sun.nio.ch.EPoll.create,0.0505
org.springframework.cglib.core.EmitUtils$3.processCase,0.0443
com.fasterxml.jackson.databind.cfg.CoercionInputShape.values,-0.0063
org.springframework.boot.env.SpringFactoriesEnvironmentPostProcessorsFactory.getEnvironmentPostProcessors,0.0418
java.util.zip.Inflater.end,0.0439
org.springframework.boot.loader.jar.AsciiBytes.hashCode,0.1686
org.springframework.boot.context.properties.source.SoftReferenceConfigurationPropertyCache.getValue,0.0487
java.lang.invoke.MethodHandles$Lookup$ClassOption.optionsToFlag,0.0450
java.util.concurrent.CopyOnWriteArrayList$COWIterator.<init>,0.0418
org.springframework.security.authorization.method.PreFilterExpressionAttributeRegistry.<init>,0.0438
java.lang.ClassLoader.addClass,0.0443
org.springframework.beans.factory.support.AbstractBeanFactory.isTypeMatch,0.0443
org.springframework.beans.factory.support.AbstractAutowireCapableBeanFactory.applyBeanPostProcessorsBeforeInitialization,0.0450
java.nio.DirectLongBufferU.get,0.0487
org.springframework.core.annotation.PackagesAnnotationFilter.matches,0.1516
org.springframework.asm.Context.<init>,0.0487
java.net.URLStreamHandler.parseURL,0.0930
java.lang.ThreadLocal.set,0.0487
java.lang.StringLatin1.indexOf,0.0843
java.lang.invoke.MethodHandles$Lookup.checkMethod,0.0418
java.lang.Class.getSuperclass,0.4683
org.springframework.data.repository.query.parser.PartTree$Predicate.<init>,0.0450
org.apache.tomcat.util.http.CookieProcessorBase.<clinit>,0.0434
org.springframework.core.ResolvableType$1.<init>,0.0939
org.springframework.asm.ClassReader.<init>,0.0487
jdk.internal.org.objectweb.asm.SymbolTable.addConstantUtf8,0.0487
org.springframework.boot.autoconfigure.data.mongo.MongoDatabaseFactoryDependentConfiguration.mongoTemplate,0.0450
org.apache.catalina.mapper.MapperListener.registerContext,0.0434
java.lang.StringBuilder.append,0.0421
sun.nio.ch.IOUtil.fdVal,0.0505
java.lang.reflect.Constructor.getRoot,0.0421
java.util.IdentityHashMap.get,0.0443
org.springframework.beans.factory.support.AbstractAutowireCapableBeanFactory.autowireConstructor,0.0443
org.springframework.data.mongodb.core.convert.MongoCustomConversions$MongoConverterConfigurationAdapter.createConverterConfiguration,0.0434
jdk.internal.org.objectweb.asm.Edge.<init>,0.0418
org.springframework.beans.factory.annotation.AutowiredAnnotationBeanPostProcessor.findAutowiredAnnotation,0.0505
java.time.Instant.<init>,0.0421
org.springframework.boot.web.embedded.tomcat.TomcatServletWebServerFactory.getWebServer,0.0438
jdk.internal.ref.PhantomCleanable.<init>,0.0421
org.springframework.context.annotation.ConfigurationClassParser.processImports,0.0487
jdk.internal.misc.ScopedMemoryAccess.getByteInternal,0.0974
java.util.stream.ReferencePipeline.collect,0.0487
java.util.concurrent.ConcurrentHashMap.computeIfAbsent,0.0434
java.nio.DirectLongBufferU.put,0.0418
sun.security.util.NamedCurve.<init>,0.0434
org.springframework.boot.loader.jar.Handler.parseURL,0.0839
java.net.URL.isValidProtocol,0.0418
sun.nio.ch.EPoll.wait,-0.0000
jdk.proxy2.$Proxy34.annotationType,0.0434
java.util.concurrent.locks.AbstractQueuedSynchronizer.acquire,0.0000
java.lang.AbstractStringBuilder.appendChars,0.0434
org.springframework.context.annotation.AnnotationConfigUtils.attributesForRepeatable,0.0487
org.springframework.util.ClassUtils.getMostSpecificMethod,0.0450
org.springframework.boot.autoconfigure.web.servlet.HttpEncodingAutoConfiguration.characterEncodingFilter,0.0434
java.util.zip.Inflater.init,0.1875
java.security.AccessController.doPrivileged,0.0505
sun.text.UCompactIntArray.initPlane,0.0434
java.util.TreeMap.forEach,0.0505
java.lang.invoke.LambdaForm$MH/0x00007fde782b8400.invoke,0.0450
java.lang.String.<init>,0.0434
java.text.RBTableBuilder.getContractValuesImpl,0.0434
java.util.Collections$SingletonList.hashCode,0.0443
jdk.internal.loader.URLClassPath$Loader.getResource,0.1343
java.lang.reflect.ProxyGenerator.computeUniqueCatchList,0.0487
jdk.internal.icu.impl.NormalizerImpl.getDecompose,0.0434
org.springframework.boot.loader.jar.JarURLConnection.getJarFile,0.0505
java.lang.Class.getClassData,0.0418
org.springframework.core.MethodParameter.<init>,0.0434
java.lang.String.indexOf,0.2760
org.springframework.boot.loader.jar.Handler.isUrlInJarFile,0.0418
org.springframework.boot.web.servlet.context.WebServerStartStopLifecycle.start,0.0505
jdk.internal.org.objectweb.asm.ByteVector.put11,0.0421
org.springframework.context.event.EventListenerMethodProcessor.isSpringContainerClass,0.0505
java.lang.Class.getProtectionDomain0,0.0438
org.springframework.data.convert.DefaultConverterBuilder.getWritingConverter,0.0450
java.lang.Object.clone,0.4148
org.springframework.core.type.filter.AnnotationTypeFilter.matchSelf,0.0443
java.time.ZonedDateTime.of,0.0418
java.lang.invoke.MethodType.changeReturnType,0.0418
sun.reflect.annotation.AnnotationParser$1.<init>,0.0487
java.net.Inet6AddressImpl.lookupAllHostAddr,0.0008
java.util.concurrent.ConcurrentHashMap.addCount,0.0505
java.lang.reflect.Executable.declaredAnnotations,0.0505
java.lang.Math.floorDiv,0.0421
java.util.HashMap.putMapEntries,0.0505
org.springframework.core.io.support.SpringFactoriesLoader.loadFactoriesResource,0.0421
java.util.concurrent.ConcurrentHashMap$CollectionView.toArray,0.0418
java.lang.Object.hashCode,0.0487
org.springframework.data.repository.config.AnnotationRepositoryConfigurationSource.parseFilters,0.0443
java.lang.invoke.MethodHandles.insertArgumentPrimitive,0.0443
java.util.concurrent.locks.AbstractQueuedSynchronizer$ConditionObject.awaitNanos,0.0000
java.lang.ClassValue.get,0.0443
java.lang.ClassLoader.definePackage,0.0421
java.util.stream.ReferencePipeline.lambda$toArray$0,0.0418
java.lang.ThreadLocal$ThreadLocalMap.expungeStaleEntry,0.0450
java.util.Arrays.binarySearch0,0.4809
java.lang.Character.getType,0.0421
org.springframework.core.annotation.TypeMappedAnnotation.adaptForAttribute,0.0443
sun.security.util.KnownOIDs.register,0.0438
java.time.LocalDateTime.ofEpochSecond,-0.0063
jdk.internal.jimage.ImageLocation.verify,0.0925
org.springframework.beans.factory.annotation.InitDestroyAnnotationBeanPostProcessor.findLifecycleMetadata,0.0434
org.springframework.core.annotation.AttributeMethods.<init>,0.0487
org.springframework.cglib.proxy.Enhancer.<clinit>,0.0443
java.util.Hashtable.get,0.0421
org.springframework.core.ResolvableType.<init>,0.0438
java.lang.ref.Reference.waitForReferencePendingList,0.0236
java.util.concurrent.ConcurrentHashMap$Traverser.advance,0.0487
java.lang.ThreadLocal.get,0.0443
org.springframework.util.LinkedMultiValueMap.<init>,0.0487
org.springframework.boot.loader.jar.JarFileEntries.doGetEntry,0.0835
org.springframework.boot.autoconfigure.info.ProjectInfoAutoConfiguration.<init>,0.0505
org.springframework.core.convert.converter.GenericConverter$ConvertiblePair.equals,0.0438
sun.security.provider.PolicyFile.getKnownPermission,0.0421
org.springframework.core.ResolvableType.forMethodParameter,0.0505
sun.reflect.annotation.AnnotationParser.parseAnnotation2,0.0421
org.springframework.core.annotation.TypeMappedAnnotations$AggregatesCollector.createAggregate,0.0487
org.bson.codecs.BsonNullCodec.getEncoderClass,0.0434
java.util.zip.Inflater.needsInput,0.0421
com.sun.naming.internal.ResourceManager.getInitialEnvironment,0.0418
org.apache.catalina.realm.RealmBase.<clinit>,0.0438
org.springframework.boot.context.config.ConfigDataEnvironment.processAndApply,0.0418
jdk.internal.icu.text.UCharacterIterator.getInstance,0.0434
java.util.Properties.load0,0.0487
java.lang.StringConcatHelper.stringOf,0.0487
org.springframework.core.ResolvableType.forRawClass,0.0438
org.springframework.expression.common.TemplateAwareExpressionParser.parseTemplate,0.0443
java.util.Arrays.copyOfRange,0.0571
org.springframework.aop.support.AopUtils.getMostSpecificMethod,0.0438
org.springframework.boot.loader.jar.CentralDirectoryParser.parseEntries,0.0421
java.lang.Object.wait,0.0001
java.lang.invoke.MethodHandleImpl$AsVarargsCollector.asTypeUncached,0.0443
java.util.concurrent.ConcurrentHashMap.transfer,0.0421
java.util.Properties$LineReader.readLine,0.0925
java.beans.FeatureDescriptor.getParameterTypes,0.0487
org.springframework.beans.factory.support.AbstractBeanFactory.transformedBeanName,0.0438
java.lang.reflect.Constructor.copy,0.0487
org.springframework.util.ConcurrentReferenceHashMap$Segment.lambda$doTask$0,0.0450
java.util.ImmutableCollections$Access.<clinit>,0.0421
jdk.internal.misc.Unsafe.allocateUninitializedArray,0.0421
org.springframework.boot.loader.jar.JarFileEntries.sort,0.0421
java.util.HashSet.<init>,0.0487
java.io.FilePermission$1.newPermPlusAltPath,0.0421
java.lang.Class.isArray,0.1744
java.util.stream.Collector.of,0.0443
org.springframework.boot.context.properties.source.ConfigurationPropertyName.probablySingleElementOf,0.0418
java.util.concurrent.locks.ReentrantLock$NonfairSync.initialTryLock,0.0434
jakarta.servlet.GenericServlet.<init>,0.0438
java.net.URLStreamHandler.setURL,0.0843
org.apache.catalina.connector.Connector.initInternal,0.0434
jdk.proxy2.$Proxy81.annotationType,0.0450
java.lang.ref.Reference.refersTo0,0.1264
java.lang.ClassLoader.findBootstrapClass,0.2628
org.springframework.core.annotation.MergedAnnotationsCollection$AnnotationsSpliterator.<init>,0.0487
java.util.concurrent.ConcurrentHashMap.get,0.1829
jdk.internal.reflect.Reflection.getCallerClass,0.0443
java.lang.StringUTF16.toBytes,0.0434
java.util.concurrent.ConcurrentHashMap.isEmpty,0.0438
java.time.format.DateTimeFormatterBuilder$OffsetIdPrinterParser.format,0.0443
org.springframework.boot.context.properties.source.SystemEnvironmentPropertyMapper.isAncestorOf,0.0418
java.lang.invoke.VarHandleReferences$FieldInstanceReadWrite.compareAndSet,0.0121
java.lang.Class.getDeclaredConstructors0,0.0867
java.lang.ClassLoader.loadClass,0.0903
jdk.internal.org.objectweb.asm.Frame.execute,0.0884
java.lang.PublicMethods$MethodList.filter,0.0900
com.fasterxml.jackson.databind.ObjectMapper.<init>,-0.0006
java.lang.Class.getInterfaces,0.1910
jdk.internal.module.ModuleReferenceImpl.hashCode,0.0418
org.springframework.context.annotation.ConfigurationClassPostProcessor.processConfigBeanDefinitions,0.0487
org.springframework.boot.web.embedded.tomcat.TomcatServletWebServerFactory.getDefaultServerLifecycleListeners,0.0438
org.springframework.beans.factory.support.DefaultListableBeanFactory.doGetBeanNamesForType,0.1320
java.util.concurrent.ConcurrentHashMap.keySet,0.0443
org.springframework.security.config.annotation.web.configurers.SessionManagementConfigurer.getSessionAuthenticationStrategy,0.0505
jdk.internal.misc.Unsafe.allocateInstance,0.2817
sun.reflect.generics.visitor.Reifier.<init>,0.0418
java.lang.invoke.MethodHandleNatives.resolve,0.0450
org.springframework.boot.context.config.ConfigDataEnvironmentContributor.getChildren,0.0418
java.io.RandomAccessFile.readBytes,0.4259
org.springframework.util.AntPathMatcher.doMatch,0.0505
java.lang.invoke.StringConcatFactory.generateMHInlineCopy,0.0925
org.springframework.web.servlet.mvc.method.RequestMappingInfo.equals,0.0505
java.lang.invoke.MemberName.equals,0.0443
java.util.stream.ReferencePipeline.<init>,0.0487
java.lang.AbstractStringBuilder.<init>,0.0487
java.util.Collections$UnmodifiableCollection.contains,0.0443
org.springframework.boot.loader.jar.JarFile$1.visitFileHeader,0.0421
org.springframework.aop.framework.autoproxy.AbstractAutoProxyCreator.getCacheKey,0.0438
java.lang.invoke.MethodHandles$Lookup.resolveOrFail,0.0421
java.util.HashMap.tableSizeFor,0.0487
com.mongodb.internal.connection.CommandHelper.getCommandMessage,0.0019
java.net.URLClassLoader$2.<init>,0.0487
org.springframework.data.mapping.context.AbstractMappingContext$PersistentPropertyCreator.addPropertiesForRemainingDescriptors,0.0450
sun.nio.fs.UnixFileSystemProvider.readAttributes,0.0421
org.springframework.beans.factory.support.AbstractBeanDefinition.getFactoryMethodName,0.0443
java.util.HashMap.remove,0.0487
java.util.zip.InflaterInputStream.close,0.0443
org.apache.catalina.core.StandardContext.startInternal,0.0434
java.lang.Double.doubleToRawLongBits,0.0505
sun.util.locale.LanguageTag.parse,0.0121
org.bson.internal.ChildCodecRegistry.getCodecClass,0.0008
java.security.AccessController.getStackAccessControlContext,0.0505
java.lang.Class.initClassName,0.1295
org.springframework.boot.loader.data.RandomAccessDataFile.read,0.0421
org.springframework.beans.factory.support.AbstractAutowireCapableBeanFactory.applyBeanPostProcessorsBeforeInstantiation,0.0450
java.util.Objects.hashCode,0.0421
java.util.Arrays.sort,0.0487
org.springframework.core.ResolvableType$1.isAssignableFrom,0.0443
java.lang.Class.isAssignableFrom,0.3299
org.springframework.beans.factory.support.AbstractBeanFactory.getTempClassLoader,0.0487
org.springframework.boot.loader.jar.Handler.setFile,0.0939
org.springframework.beans.factory.support.DefaultListableBeanFactory.isSelfReference,0.0450
java.lang.Byte.<init>,0.0421
java.lang.Class.getConstantPool,0.0992
org.springframework.beans.MutablePropertyValues.isEmpty,0.0505
com.fasterxml.jackson.datatype.jsr310.JavaTimeModule.<init>,-0.0063
jdk.internal.reflect.MethodAccessorImpl.<init>,0.0434
org.springframework.beans.factory.support.AbstractBeanFactory.markBeanAsCreated,0.0450
sun.security.provider.FileInputStreamPool.getInputStream,0.0438
java.lang.String.intern,0.0851
java.util.zip.InflaterInputStream.read,0.0450
java.lang.String.rangeCheck,0.0505
org.springframework.asm.Frame.pop,0.0888
java.io.FilePermissionCollection$1.<init>,0.0434
org.springframework.cglib.core.CodeEmitter.emit_invoke,0.0438
jdk.internal.util.ArraysSupport.mismatch,0.0505
java.security.AccessController.ensureMaterializedForStackWalk,0.0450
org.apache.catalina.util.LifecycleMBeanBase.<clinit>,0.0438
org.springframework.context.annotation.ConfigurationClassParser$SourceClass.getAnnotations,0.0487
java.lang.String.startsWith,1.1008
java.security.Policy.loadPolicyProvider,0.0421
org.apache.catalina.startup.Tomcat.getServer,0.0438
sun.net.www.ParseUtil.firstEncodeIndex,0.3003
java.util.LinkedHashMap.getOrDefault,0.0505
java.lang.Long.bitCount,0.0487
org.springframework.boot.autoconfigure.condition.OnBeanCondition.collectBeanNamesForType,0.0443
org.springframework.boot.context.properties.source.SpringIterableConfigurationPropertySource$$Lambda$163/0x00007fde780bddb8.<init>,0.0923
org.springframework.beans.factory.support.DefaultSingletonBeanRegistry.getSingleton,0.0450
org.springframework.core.annotation.AnnotationsScanner.processMethodHierarchy,0.0438
java.util.ArrayDeque.push,0.0487
java.util.zip.Inflater.inflateBytesBytes,1.4227
java.util.zip.ZipUtils.javaToExtendedDosTime,0.0421
org.springframework.boot.loader.jar.JarFileEntries.getEntry,0.0434
sun.util.resources.cldr.TimeZoneNames_en.getContents,0.0434
java.util.LinkedHashMap.newNode,0.0930
org.springframework.beans.factory.support.AbstractAutowireCapableBeanFactory.instantiateBean,0.0487
org.springframework.boot.context.properties.bind.Binder.bind,0.0418
java.security.CodeSource.<init>,0.0421
jdk.proxy2.$Proxy53.annotationType,0.0438
java.lang.StringLatin1.replace,0.0860
java.lang.invoke.VarHandle.getTypesAndInvokers,0.0438
org.springframework.core.SimpleAliasRegistry.canonicalName,0.0443
org.springframework.boot.loader.jar.JarFileEntries.iterator,0.0421
org.springframework.boot.loader.jar.JarFileEntries.getInputStream,0.0121
java.lang.String.hashCode,0.0443
org.springframework.security.config.annotation.web.configuration.WebMvcSecurityConfiguration.addArgumentResolvers,0.0505
sun.security.util.ObjectIdentifier.<init>,0.0438
org.springframework.core.convert.support.DefaultConversionService.addDefaultConverters,0.0418
org.springframework.core.ResolvableType.forType,0.0418
