java.net.URI$Parser.scan,0.1513
com.mongodb.internal.connection.ResponseBuffers.getBodyByteBuffer,0.0034
org.springframework.util.ConcurrentReferenceHashMap$Segment.findInChain,0.9238
java.util.zip.Inflater.init,0.4842
java.lang.ClassLoader.createOrGetClassLoaderValueMap,0.1624
java.lang.Integer.getChars,0.1602
sun.text.UCompactIntArray.initPlane,0.1593
org.springframework.util.ObjectUtils.unwrapOptional,0.1909
java.util.concurrent.Executors.newSingleThreadScheduledExecutor,0.1593
java.lang.reflect.Proxy$ProxyBuilder.referencedTypes,0.1593
java.lang.String.<init>,0.1513
java.math.BigInteger.<init>,0.1593
org.springframework.core.annotation.AnnotationsScanner.getDeclaredAnnotations,0.7321
jdk.internal.loader.URLClassPath$Loader.getResource,0.5016
sun.util.locale.LanguageTag.parseRegion,-0.0005
org.springframework.boot.loader.jar.JarURLConnection.getJarFile,0.1513
org.springframework.boot.loader.data.RandomAccessDataFile$FileAccess.read,0.1624
jdk.internal.org.objectweb.asm.AnnotationVisitor.<init>,0.1513
org.springframework.aop.framework.AbstractAdvisingBeanPostProcessor.isEligible,0.1602
java.lang.AbstractStringBuilder.append,0.1593
java.time.temporal.ChronoField.checkValidValue,0.4842
org.springframework.util.ClassUtils.forName,0.1624
com.mongodb.internal.connection.ByteBufferBsonOutput.ensureOpen,0.0034
java.lang.invoke.MethodType.checkPtypes,0.1602
org.springframework.boot.loader.jar.Handler.isUrlInJarFile,0.1513
ch.qos.logback.core.subst.Tokenizer.handleLiteralState,0.1513
java.time.ZonedDateTime.toLocalDate,0.1513
jdk.internal.org.objectweb.asm.SymbolTable$Entry.<init>,0.1513
java.util.concurrent.ConcurrentHashMap.putVal,0.1624
java.lang.StringBuilder.<init>,0.3026
java.lang.Object.clone,0.5127
org.springframework.beans.factory.support.AbstractAutowireCapableBeanFactory.applyBeanPostProcessorsAfterInitialization,0.1909
org.springframework.beans.factory.support.AbstractAutowireCapableBeanFactory.populateBean,0.1909
org.springframework.boot.autoconfigure.condition.ConditionOutcome.<init>,0.1624
java.util.Collections$SetFromMap.remove,0.1909
jdk.internal.loader.ClassLoaders$AppClassLoader.loadClass,0.1513
org.springframework.core.annotation.AnnotationsScanner.processClassHierarchy,1.1139
java.util.concurrent.ConcurrentHashMap.putIfAbsent,0.3205
org.springframework.boot.loader.jar.CentralDirectoryFileHeader.fromRandomAccessData,-0.0005
com.mongodb.internal.Locks.withLock,0.1593
org.springframework.core.annotation.AnnotationsScanner.processElement,0.1909
org.springframework.beans.CachedIntrospectionResults.forClass,0.1624
org.springframework.core.type.classreading.SimpleMethodMetadataReadingVisitor$Source.hashCode,0.1624
org.apache.tomcat.util.collections.ManagedConcurrentWeakHashMap$Key.<init>,0.1593
jdk.internal.jimage.ImageLocation.readValue,0.1513
java.lang.reflect.Proxy.newProxyInstance,0.1624
java.util.zip.ZipFile$Source.getEntryPos,0.1934
java.util.concurrent.ConcurrentHashMap$CollectionView.toArray,0.1602
java.lang.invoke.TypeConvertingMethodAdapter.descriptorToName,-0.0005
org.springframework.util.ConcurrentReferenceHashMap.getReference,0.1593
org.springframework.beans.factory.support.AbstractBeanDefinition.copyQualifiersFrom,0.1602
jdk.internal.loader.BuiltinClassLoader.hasClassPath,0.1602
org.springframework.boot.loader.jar.JarFileEntries.containsEntry,0.1513
org.springframework.context.annotation.ConfigurationClassBeanDefinitionReader$$Lambda$386/0x00007f52e0240000.<init>,0.1602
java.lang.ClassValue.get,0.1602
org.springframework.core.annotation.TypeMappedAnnotations.isMappingForType,0.1909
com.fasterxml.jackson.databind.cfg.MapperConfigBase.without,-0.0005
java.util.Arrays.binarySearch0,0.6474
java.lang.invoke.DirectMethodHandle$Holder.invokeStatic,0.4850
java.lang.String.substring,0.1593
java.lang.invoke.BootstrapMethodInvoker.invoke,0.1602
jdk.internal.jimage.ImageStringsReader.unmaskedHashCode,0.1602
sun.nio.ch.Net.accept,-0.0002
org.springframework.core.annotation.TypeMappedAnnotations$AggregatesSpliterator.tryAdvance,0.1624
sun.text.ComposedCharIter.decomposition,0.1593
java.util.LinkedList.linkLast,0.1593
java.lang.ref.Reference.waitForReferencePendingList,0.0361
java.nio.StringCharBuffer.<init>,0.1909
java.lang.StringConcatHelper.simpleConcat,0.1513
java.util.Properties.getProperty,0.1624
java.util.concurrent.ConcurrentHashMap$Traverser.advance,0.1909
org.springframework.core.annotation.TypeMappedAnnotations.get,0.3511
java.lang.StringLatin1.lastIndexOf,1.8014
org.springframework.boot.loader.jar.JarFileEntries.doGetEntry,0.1624
java.util.AbstractCollection.toArray,0.1624
org.springframework.core.ResolvableType.equals,0.1513
java.net.SocketImpl.createPlatformSocketImpl,0.0059
java.net.URL.toLowerCase,0.1513
org.springframework.asm.SymbolTable.hash,0.1602
org.springframework.core.annotation.TypeMappedAnnotation.<init>,0.1624
jdk.internal.org.objectweb.asm.SymbolTable.addConstantNameAndType,0.1593
org.springframework.util.ReflectionUtils.findMethod,0.3205
java.lang.Throwable.fillInStackTrace,1.5878
java.lang.ThreadGroup.addUnstarted,0.1513
org.springframework.data.convert.ConverterBuilder.reading,0.1593
java.lang.StringLatin1.indexOfNonWhitespace,0.1624
com.mongodb.internal.connection.DefaultConnectionPool.<init>,0.1593
org.springframework.context.annotation.AnnotationConfigUtils.registerAnnotationConfigProcessors,0.1624
java.lang.invoke.MethodHandles$Lookup.revealDirect,0.1909
java.util.Properties.load0,0.1624
java.lang.ref.Reference.clear0,-0.0005
java.lang.ClassLoader.defineClass0,1.9173
java.lang.ClassLoader.defineClass1,9.3495
org.apache.tomcat.util.file.ConfigurationSource$1.<init>,0.1602
java.lang.invoke.MethodHandleImpl.makePairwiseConvertByEditor,0.1602
jdk.internal.loader.URLClassPath.getLoader,0.1624
java.util.Arrays.copyOfRange,0.1602
org.springframework.boot.loader.jar.CentralDirectoryParser.parseEntries,0.1513
org.springframework.core.AttributeAccessorSupport.getAttribute,0.1624
java.lang.Object.wait,0.0012
org.springframework.core.BridgeMethodResolver.isVisibilityBridgeMethodPair,0.1602
jdk.internal.loader.Resource.getBytes,0.1602
org.springframework.beans.factory.support.AbstractBeanFactory.isActuallyInCreation,0.1909
java.util.concurrent.ConcurrentHashMap.transfer,0.3137
org.springframework.util.ReflectionUtils.<clinit>,0.1513
org.springframework.asm.Frame.execute,0.1602
java.net.URLClassLoader$3.next,0.1513
org.springframework.boot.loader.jar.StringSequence.toString,0.1513
org.springframework.util.ReflectionUtils.getDeclaredMethods,0.1593
java.util.stream.ReduceOps$ReduceOp.evaluateSequential,0.1624
org.springframework.boot.logging.LogLevel.values,0.1513
org.springframework.boot.context.properties.ConfigurationPropertiesBean.findAnnotations,0.1602
org.springframework.util.ConcurrentReferenceHashMap$Segment.doTask,0.1593
com.mongodb.client.internal.MongoClientDelegate.<init>,0.1593
org.springframework.beans.factory.InjectionPoint.getMethodParameter,0.1602
sun.security.provider.SunEntries.<init>,0.1602
java.lang.ClassLoader.findLoadedClass0,0.1602
java.lang.invoke.DirectMethodHandle$Holder.newInvokeSpecial,0.1624
org.springframework.util.ReflectionUtils.findConcreteMethodsOnInterfaces,0.1602
java.net.URI.quote,0.1513
jdk.internal.loader.NativeLibraries.findBuiltinLib,0.1602
java.util.TreeMap.successor,0.1909
java.lang.Class.getDeclaredMethods0,1.3960
org.springframework.core.annotation.AnnotationTypeMappings.size,0.3248
java.lang.invoke.AbstractValidatingLambdaMetafactory.isAdaptableToAsReturnStrict,0.1909
org.springframework.boot.autoconfigure.websocket.servlet.WebSocketServletAutoConfiguration$TomcatWebSocketConfiguration.websocketServletWebServerCustomizer,0.1602
java.io.RandomAccessFile.seek0,0.4707
org.springframework.beans.factory.support.MethodOverrides.<init>,0.1624
jdk.internal.loader.URLClassPath.getResource,0.3422
sun.security.util.ObjectIdentifier.checkOidSize,0.1602
org.springframework.boot.loader.jar.JarFileEntries.isMetaInfEntry,0.1513
sun.nio.ch.EPollSelectorProvider.openSelector,0.1909
java.lang.reflect.Modifier.isVolatile,0.1513
org.springframework.boot.context.properties.source.ConfigurationPropertyName$ElementsParser.parse,0.1513
jdk.proxy2.$Proxy77.annotationType,0.1909
java.lang.ref.Reference.refersTo0,0.1624
jdk.internal.reflect.NativeConstructorAccessorImpl.newInstance0,0.3205
java.lang.ClassLoader.findBootstrapClass,1.4514
sun.util.locale.StringTokenIterator.nextDelimiter,-0.0005
jdk.proxy2.$Proxy2.annotationType,0.1909
java.util.concurrent.ConcurrentHashMap.get,0.6729
org.springframework.core.annotation.TypeMappedAnnotations$IsPresent.doWithAnnotations,0.1909
java.lang.Class.getDeclaredConstructors0,0.1513
java.lang.invoke.InnerClassLambdaMetafactory.lambdaClassName,0.1602
java.nio.DirectByteBuffer.get,0.3248
org.springframework.boot.loader.jar.AsciiBytes.<init>,0.1513
java.util.Arrays.copyOf,0.1593
java.util.TimeZone.getDisplayName,0.1593
java.lang.PublicMethods$MethodList.filter,0.1909
com.fasterxml.jackson.databind.ObjectMapper.<init>,-0.0010
java.lang.Class.getInterfaces,0.1593
java.util.AbstractCollection.isEmpty,0.1602
jdk.internal.org.objectweb.asm.SymbolTable.hash,0.1624
org.springframework.beans.factory.support.DefaultListableBeanFactory.getBeanNamesForAnnotation,0.1909
org.springframework.beans.factory.support.DefaultListableBeanFactory.doGetBeanNamesForType,0.6392
org.springframework.boot.context.properties.source.ConfigurationPropertyName$ElementsParser.<init>,0.1513
org.springframework.data.util.TypeDiscoverer.isCollectionLike,0.1593
java.lang.StringLatin1.hashCode,1.1272
java.lang.Thread.dumpThreads,1.1515
jdk.internal.misc.Unsafe.allocateInstance,0.7023
java.lang.StringConcatHelper.prepend,0.1513
java.lang.invoke.MethodHandleNatives.resolve,0.1909
java.util.TreeMap.<init>,0.1593
java.io.RandomAccessFile.readBytes,4.1991
java.lang.Class.getDeclaredMethod,0.1593
org.springframework.asm.ClassReader.readUTF8,0.1624
org.springframework.core.annotation.MergedAnnotationsCollection.isMappingForType,0.1602
org.bson.ByteBufNIO.remaining,0.0034
java.lang.AbstractStringBuilder.<init>,0.1602
java.util.ResourceBundle$ResourceBundleControlProviderHolder.getControl,0.1602
org.springframework.core.annotation.AnnotationsScanner.isWithoutHierarchy,0.1909
sun.reflect.generics.parser.SignatureParser.skipIdentifier,0.3422
org.springframework.context.support.PostProcessorRegistrationDelegate.invokeBeanFactoryPostProcessors,0.1602
sun.reflect.annotation.AnnotationInvocationHandler.invoke,0.1593
org.springframework.core.annotation.AnnotatedElementUtils.hasAnnotation,0.1909
org.springframework.core.annotation.AnnotationsScanner.getBaseTypeMethods,0.1909
org.springframework.boot.loader.jar.AsciiBytes.endsWith,0.1513
jdk.internal.loader.AbstractClassLoaderValue$Sub.equals,0.1624
org.springframework.boot.loader.jar.JarURLConnection.get,0.1513
java.lang.Class.forName0,0.4842
java.lang.invoke.VarHandles.makeArrayElementHandle,-0.0005
org.springframework.boot.autoconfigure.condition.ConditionalOnWebApplication$Type.<init>,0.1624
java.util.HashMap.tableSizeFor,0.1624
org.springframework.boot.autoconfigure.web.servlet.ServletWebServerFactoryAutoConfiguration.tomcatServletWebServerFactoryCustomizer,0.1602
org.springframework.data.repository.core.support.RepositoryFactoryBeanSupport.afterPropertiesSet,0.1593
java.net.URL.<init>,0.1624
java.util.HashMap$HashIterator.nextNode,0.1909
org.springframework.beans.factory.support.SimpleInstantiationStrategy.instantiate,0.1624
java.lang.invoke.DelegatingMethodHandle.makeReinvokerForm,0.1602
sun.nio.ch.Net.poll,0.0459
java.lang.invoke.MethodHandles$Lookup.canBeCached,0.1513
org.apache.catalina.connector.Connector.setProperty,0.1602
org.springframework.cglib.core.AbstractClassGenerator.generate,0.1602
org.springframework.http.converter.json.Jackson2ObjectMapperBuilder.build,-0.0005
org.springframework.boot.autoconfigure.domain.EntityScanner.getPackages,0.1593
org.springframework.boot.loader.jar.CentralDirectoryFileHeader.decodeMsDosFormatDateTime,0.1513
java.util.IdentityHashMap.entrySet,0.1513
java.lang.ProcessEnvironment$StringKeySet.size,0.1909
org.springframework.boot.context.properties.bind.Bindable.of,0.1909
java.time.LocalDateTime.ofInstant,0.1513
ch.qos.logback.classic.Logger.getChildByName,0.1909
java.net.URL.toExternalForm,0.3511
java.lang.invoke.LambdaForm$NamedFunction.<init>,0.1513
java.util.LinkedList.listIterator,0.1602
java.lang.Class.initClassName,0.3132
org.springframework.core.annotation.AnnotationsScanner.isKnownEmpty,0.3818
jdk.internal.loader.Resource.getByteBuffer,0.1513
org.springframework.boot.context.properties.source.ConfigurationPropertyName.buildToString,0.1513
java.util.HashSet.iterator,0.1602
org.springframework.boot.loader.data.RandomAccessDataFile.read,0.1513
org.springframework.beans.factory.support.AbstractAutowireCapableBeanFactory.applyBeanPostProcessorsBeforeInstantiation,0.1909
sun.net.www.ParseUtil.encodePath,0.1513
org.springframework.boot.loader.jar.JarEntry.<init>,0.1593
org.springframework.beans.factory.support.AbstractBeanFactory.requiresDestruction,0.1909
org.springframework.boot.loader.jar.AsciiBytes.matches,0.1602
java.util.HashMap.hash,0.4740
java.lang.ref.ReferenceQueue.enqueue,0.0001
java.lang.Class$ReflectionData.<init>,0.1513
org.springframework.web.servlet.mvc.condition.ProducesRequestCondition.<clinit>,0.1909
java.lang.StringLatin1.equals,0.1624
java.time.Instant.ofEpochSecond,0.1624
java.lang.Iterable.forEach,0.1593
org.springframework.web.servlet.mvc.method.annotation.AbstractMessageConverterMethodArgumentResolver.<init>,0.1909
java.lang.invoke.LambdaFormBuffer.<init>,0.1624
java.lang.Character$UnicodeBlock.<init>,0.1593
java.io.ByteArrayOutputStream.write,0.1513
java.lang.invoke.MethodHandleNatives.findMethodHandleType,0.1909
java.util.zip.Inflater.setInput,0.1513
java.util.zip.Inflater.end,0.3134
org.springframework.boot.context.properties.source.ConfigurationPropertyName.elementsEqual,0.1513
java.lang.String.intern,0.1513
org.springframework.boot.loader.jar.AsciiBytes.hashCode,0.1513
jdk.internal.loader.URLClassPath.findResource,0.1624
jdk.internal.org.objectweb.asm.Type.getArgumentsAndReturnSizes,0.1602
java.security.Provider$Service.<init>,0.1593
java.lang.reflect.ProxyGenerator$ProxyMethod.generateMethod,0.1624
org.springframework.core.convert.support.GenericConversionService$Converters.find,0.1624
org.springframework.beans.factory.support.AbstractBeanFactory.isTypeMatch,0.1593
java.nio.DirectLongBufferU.get,0.1513
org.springframework.core.annotation.PackagesAnnotationFilter.matches,0.3503
java.net.URLStreamHandler.parseURL,0.1593
org.springframework.context.annotation.ConfigurationClassParser$SourceClass.getAnnotations,0.1624
org.springframework.security.config.annotation.AbstractConfiguredSecurityBuilder.beforeInit,0.1909
java.security.Policy.loadPolicyProvider,0.1513
java.lang.String.startsWith,0.6417
java.lang.Class.getSuperclass,0.7329
com.mongodb.internal.connection.CommandMessage.getId,0.0025
sun.net.www.ParseUtil.firstEncodeIndex,0.7841
org.springframework.boot.loader.jar.CentralDirectoryEndRecord.isValid,0.1513
org.springframework.util.ReflectionUtils.getDeclaredFields,0.1909
jdk.internal.jimage.ImageLocation.verifyName,0.1513
java.util.logging.LogManager$LoggerContext.requiresDefaultLoggers,0.1602
it.unisalento.pas.loginbe.security.SecurityConfig.authenticationProvider,0.1909
org.springframework.boot.autoconfigure.web.servlet.error.ErrorMvcAutoConfiguration$DefaultErrorViewResolverConfiguration.conventionErrorViewResolver,0.1909
java.time.zone.ZoneOffsetTransitionRule$TimeDefinition.createDateTime,0.1513
org.springframework.data.repository.core.support.RepositoryFactorySupport.getRepository,0.1593
java.lang.StringBuilder.append,0.1513
jdk.internal.org.objectweb.asm.SymbolTable.addConstantUtf8Reference,0.1513
java.util.LinkedHashMap$LinkedKeyIterator.next,0.1602
org.springframework.core.annotation.AnnotationsScanner.processMethodHierarchy,0.4780
java.util.IdentityHashMap.get,0.3818
org.springframework.context.annotation.ConfigurationClassBeanDefinitionReader.loadBeanDefinitionsForBeanMethod,0.1624
jdk.internal.jimage.BasicImageReader.verifyLocation,0.1624
java.lang.invoke.MethodHandles$Lookup.makeHiddenClassDefiner,0.1602
java.util.zip.Inflater.inflateBytesBytes,4.3814
jdk.internal.org.objectweb.asm.FieldWriter.putFieldInfo,0.1593
org.springframework.boot.web.servlet.server.AbstractServletWebServerFactory.<init>,0.1602
java.util.LinkedHashMap.newNode,0.1624
org.springframework.boot.SpringApplication.run,0.1513
java.time.Clock.systemUTC,0.1602
java.util.ResourceBundle$$Lambda$510/0x00007f52e00fe8d0.<init>,0.1909
org.springframework.util.ConcurrentReferenceHashMap$SoftEntryReference.get,0.1624
java.lang.StringLatin1.replace,0.1602
java.util.Properties.keySet,0.1909
org.springframework.core.type.filter.AssignableTypeFilter.matchTargetType,0.1624
org.springframework.web.servlet.mvc.method.annotation.RequestMappingHandlerAdapter.getDefaultArgumentResolvers,0.1909
org.springframework.core.ResolvableType.calculateHashCode,0.1513
java.util.concurrent.ConcurrentHashMap.computeIfAbsent,0.1602
org.springframework.beans.factory.annotation.AutowiredAnnotationBeanPostProcessor.lambda$buildAutowiringMetadata$1,0.1593
org.springframework.boot.context.config.ConfigDataEnvironment.<init>,0.1513
org.springframework.context.annotation.ConfigurationClassParser$SourceClass.<init>,0.1624
org.springframework.boot.loader.jar.Handler.parseURL,0.1513
org.springframework.boot.loader.jar.JarFileEntries.getInputStream,0.1593
java.time.ZoneRegion.ofId,0.1513
java.net.URL.isValidProtocol,0.1602
java.lang.reflect.ProxyGenerator.typeNames,0.1513
sun.nio.ch.EPoll.wait,-0.0003
org.springframework.beans.factory.support.AbstractAutowireCapableBeanFactory.predictBeanType,0.1602
java.lang.invoke.MethodHandle.<init>,-0.0005
